{
    "FI": {
        "title": "Ostoskori",
        "title2": "Pohja",
        "title3": "Kastike",
        "title4": "Täytteet",
        "title5": "Määrä",
        "button": "Seuraava",
        "button2": "Takaisin",
        "button3": "Muokkaa",
        "button4": "Poista",
        "message": "Ostoskori on tyhjä..."
    },
    "EN": {
        "title": "Cart",
        "title2": "Base",
        "title3": "Sauce",
        "title4": "Toppings",
        "title5": "Amount",
        "button": "Next",
        "button2": "Back",
        "button3": "Edit",
        "button4": "Remove",
        "message": "Shopping cart is empty..."
    }
}