{
    "FI": {
        "title": "Vahvistus",
        "title2": "Katuosoite",
        "title3": "Postinumero",
        "title4": "Kaupunki",
        "title5": "Maksutapa",
        "title6": "Käteinen",
        "title7": "Pankkikortti",
        "button": "Vahvista",
        "button2": "Takaisin",
        "message": "Tilauksen teko keskeytyi jostain syystä! Yritä myöhemmin uudestaan!"
    },
    "EN": {
        "title": "Confirm",
        "title2": "Street address",
        "title3": "Post number",
        "title4": "City",
        "title5": "Payment method",
        "title6": "Cash",
        "title7": "Credit card",
        "button": "Confirm",
        "button2": "Back",
        "message": "Ordering process stopped before completion for some reason! Try again later!"
    }
}