<?xml version="1.0" encoding="UTF-8" standalone="no"?>
<svg
   xmlns:osb="http://www.openswatchbook.org/uri/2009/osb"
   xmlns:dc="http://purl.org/dc/elements/1.1/"
   xmlns:cc="http://creativecommons.org/ns#"
   xmlns:rdf="http://www.w3.org/1999/02/22-rdf-syntax-ns#"
   xmlns:svg="http://www.w3.org/2000/svg"
   xmlns="http://www.w3.org/2000/svg"
   xmlns:xlink="http://www.w3.org/1999/xlink"
   id="svg8"
   version="1.1"
   viewBox="0 0 46.348946 44.226616"
   height="44.226616mm"
   width="46.348946mm">
  <defs
     id="defs2">
    <linearGradient
       id="linearGradient3539">
      <stop
         style="stop-color:#ffcdbc;stop-opacity:1;"
         offset="0"
         id="stop3535" />
      <stop
         style="stop-color:#ffcdbc;stop-opacity:0;"
         offset="1"
         id="stop3537" />
    </linearGradient>
    <linearGradient
       id="linearGradient3531">
      <stop
         style="stop-color:#ffcdb6;stop-opacity:1;"
         offset="0"
         id="stop3527" />
      <stop
         style="stop-color:#ffcdb6;stop-opacity:0;"
         offset="1"
         id="stop3529" />
    </linearGradient>
    <linearGradient
       id="linearGradient3443">
      <stop
         style="stop-color:#ffcdbc;stop-opacity:1;"
         offset="0"
         id="stop3439" />
      <stop
         style="stop-color:#ffcdbc;stop-opacity:0;"
         offset="1"
         id="stop3441" />
    </linearGradient>
    <linearGradient
       id="linearGradient3435">
      <stop
         style="stop-color:#ffcdb6;stop-opacity:1;"
         offset="0"
         id="stop3431" />
      <stop
         style="stop-color:#ffcdb6;stop-opacity:0;"
         offset="1"
         id="stop3433" />
    </linearGradient>
    <linearGradient
       id="linearGradient3403">
      <stop
         style="stop-color:#ffcdb6;stop-opacity:1;"
         offset="0"
         id="stop3399" />
      <stop
         style="stop-color:#ffcdb6;stop-opacity:0;"
         offset="1"
         id="stop3401" />
    </linearGradient>
    <linearGradient
       id="linearGradient3395">
      <stop
         style="stop-color:#ffbeb1;stop-opacity:1;"
         offset="0"
         id="stop3391" />
      <stop
         style="stop-color:#ffbeb1;stop-opacity:0;"
         offset="1"
         id="stop3393" />
    </linearGradient>
    <linearGradient
       id="linearGradient3203"
       osb:paint="solid">
      <stop
         style="stop-color:#ffcdb6;stop-opacity:1;"
         offset="0"
         id="stop3201" />
    </linearGradient>
    <linearGradient
       id="linearGradient959"
       osb:paint="solid">
      <stop
         style="stop-color:#ffffff;stop-opacity:1;"
         offset="0"
         id="stop957" />
    </linearGradient>
    <linearGradient
       id="linearGradient4178">
      <stop
         id="stop4174"
         offset="0"
         style="stop-color:#000000;stop-opacity:1;" />
      <stop
         id="stop4176"
         offset="1"
         style="stop-color:#000000;stop-opacity:0;" />
    </linearGradient>
    <linearGradient
       id="linearGradient4050">
      <stop
         id="stop4046"
         offset="0"
         style="stop-color:#000000;stop-opacity:1;" />
      <stop
         id="stop4048"
         offset="1"
         style="stop-color:#000000;stop-opacity:0;" />
    </linearGradient>
    <linearGradient
       osb:paint="solid"
       id="linearGradient3416">
      <stop
         id="stop3414"
         offset="0"
         style="stop-color:#000000;stop-opacity:1;" />
    </linearGradient>
    <linearGradient
       osb:paint="solid"
       id="linearGradient3148">
      <stop
         id="stop3146"
         offset="0"
         style="stop-color:#000000;stop-opacity:1;" />
    </linearGradient>
    <linearGradient
       osb:paint="solid"
       id="linearGradient3047">
      <stop
         id="stop3045"
         offset="0"
         style="stop-color:#cc0000;stop-opacity:1;" />
    </linearGradient>
    <linearGradient
       osb:paint="solid"
       id="linearGradient3041">
      <stop
         id="stop3039"
         offset="0"
         style="stop-color:#cc0000;stop-opacity:1;" />
    </linearGradient>
    <linearGradient
       osb:paint="solid"
       id="linearGradient3035">
      <stop
         id="stop3033"
         offset="0"
         style="stop-color:#cc0000;stop-opacity:1;" />
    </linearGradient>
    <linearGradient
       osb:paint="solid"
       id="linearGradient2795">
      <stop
         id="stop2793"
         offset="0"
         style="stop-color:#ff0000;stop-opacity:1;" />
    </linearGradient>
    <linearGradient
       osb:paint="solid"
       id="linearGradient2781">
      <stop
         id="stop2779"
         offset="0"
         style="stop-color:#000000;stop-opacity:1;" />
    </linearGradient>
    <radialGradient
       gradientUnits="userSpaceOnUse"
       gradientTransform="matrix(1,0,0,0.328138,-1.3229168,37.375276)"
       r="5.0019135"
       fy="73.35067"
       fx="72.955261"
       cy="73.35067"
       cx="72.955261"
       id="radialGradient4052"
       xlink:href="#linearGradient4050" />
    <radialGradient
       gradientUnits="userSpaceOnUse"
       gradientTransform="matrix(1,0,0,0.35995532,-1.3229168,34.71094)"
       r="5.3391905"
       fy="72.834274"
       fx="61.535973"
       cy="72.834274"
       cx="61.535973"
       id="radialGradient4184"
       xlink:href="#linearGradient4178" />
    <radialGradient
       xlink:href="#linearGradient3395"
       id="radialGradient3397"
       cx="67.64875"
       cy="65.792168"
       fx="67.64875"
       fy="65.792168"
       r="1.6128114"
       gradientTransform="matrix(1,0,0,0.43777202,0,36.990195)"
       gradientUnits="userSpaceOnUse" />
    <radialGradient
       xlink:href="#linearGradient3403"
       id="radialGradient3405"
       cx="67.64875"
       cy="65.792168"
       fx="67.64875"
       fy="65.792168"
       r="1.6128114"
       gradientTransform="matrix(1,0,0,0.43777202,0,36.990195)"
       gradientUnits="userSpaceOnUse" />
    <radialGradient
       xlink:href="#linearGradient3435"
       id="radialGradient3437"
       cx="78.942329"
       cy="64.177521"
       fx="78.942329"
       fy="64.177521"
       r="0.68239307"
       gradientTransform="matrix(1,0,0,2.4488403,0,-92.982979)"
       gradientUnits="userSpaceOnUse" />
    <radialGradient
       xlink:href="#linearGradient3443"
       id="radialGradient3445"
       cx="78.942329"
       cy="64.177521"
       fx="78.942329"
       fy="64.177521"
       r="0.68239307"
       gradientTransform="matrix(1,0,0,2.4488403,0,-92.982979)"
       gradientUnits="userSpaceOnUse" />
    <radialGradient
       xlink:href="#linearGradient3531"
       id="radialGradient3533"
       cx="52.725075"
       cy="63.955109"
       fx="52.725075"
       fy="63.955109"
       r="1.2764009"
       gradientTransform="matrix(1,0,0,2.037778,0,-66.371205)"
       gradientUnits="userSpaceOnUse" />
    <radialGradient
       xlink:href="#linearGradient3539"
       id="radialGradient3541"
       cx="52.725075"
       cy="63.955109"
       fx="52.725075"
       fy="63.955109"
       r="1.2764009"
       gradientTransform="matrix(1,0,0,2.037778,0,-66.371205)"
       gradientUnits="userSpaceOnUse" />
  </defs>
  <metadata
     id="metadata5">
    <rdf:RDF>
      <cc:Work
         rdf:about="">
        <dc:format>image/svg+xml</dc:format>
        <dc:type
           rdf:resource="http://purl.org/dc/dcmitype/StillImage" />
        <dc:title></dc:title>
      </cc:Work>
    </rdf:RDF>
  </metadata>
  <g
     style="opacity:0"
     id="layer1"
     transform="translate(-21.276826,-18.506967)" />
  <g
     id="layer2"
     transform="translate(-21.276826,-18.506967)" />
  <g
     id="layer6"
     transform="translate(-21.276826,-18.506967)">
    <g
       id="layer3">
      <g
         id="g3675"
         transform="translate(-22.170007,-17.399246)">
        <ellipse
           style="opacity:1;mix-blend-mode:normal;fill:#d10000;fill-opacity:1;fill-rule:evenodd;stroke:#000000;stroke-width:3.4;stroke-miterlimit:4;stroke-dasharray:none;stroke-opacity:1"
           id="path835"
           cx="65.560143"
           cy="58.01952"
           rx="20.413309"
           ry="20.413307" />
        <circle
           r="0.009251155"
           cy="60.589584"
           cx="76.729164"
           style="fill:#ffcdbc;stroke:#ffcdb6;stroke-width:0.264583"
           id="path3025" />
        <circle
           r="0.009251155"
           cy="62.309376"
           cx="78.052086"
           style="fill:#ffcdbc;stroke:#ffcdb6;stroke-width:0.264583"
           id="path3029" />
        <circle
           r="0.009251155"
           cy="64.558334"
           cx="78.713539"
           style="fill:#ffcdbc;stroke:#ffcdb6;stroke-width:0.264583"
           id="path3031" />
        <circle
           r="0.009251155"
           cy="62.309376"
           cx="77.258331"
           style="fill:#ffcdbc;stroke:#ffcdb6;stroke-width:0.264583"
           id="path3045" />
        <circle
           r="0.009251155"
           cy="62.573959"
           cx="76.332291"
           style="fill:#ffcdbc;stroke:#ffcdb6;stroke-width:0.264583"
           id="path3051" />
        <circle
           r="0.009251155"
           cy="62.177082"
           cx="76.993752"
           style="fill:#ffcdbc;stroke:#ffcdb6;stroke-width:0.264583"
           id="path3059" />
        <g
           id="g3632">
          <ellipse
             ry="9.4498835"
             rx="14.741549"
             cy="64.955208"
             cx="65.484375"
             id="path2927"
             style="fill:#ffb993;fill-opacity:1;fill-rule:evenodd;stroke:#000000;stroke-width:0.88565;stroke-miterlimit:4;stroke-dasharray:none;stroke-opacity:1" />
          <path
             d="m 65.21474,67.965835 c 0.666675,0.327629 1.360597,0.592883 2.03132,0.911179 0.508661,0.260545 1.055659,0.408669 1.615001,0.508641 0.659154,0.09643 1.321618,0.168152 1.983679,0.241189 0.666741,0.05521 1.329686,0.184446 1.99982,0.148143 2.208625,-0.4048 3.95674,-0.815193 4.404302,-2.759967 0.107092,-0.566075 0.150572,-1.141486 0.208871,-1.713968 0.01056,-0.101537 0.02088,-0.203099 0.03138,-0.304644 0,0 -3.656262,1.389284 -3.656262,1.389284 v 0 c -0.01027,0.101298 -0.02053,0.202598 -0.03059,0.303918 -0.05776,0.554356 -0.106987,1.113621 -0.242524,1.655542 -0.07222,0.214215 -0.140405,0.424535 -0.306457,0.588262 -0.05081,0.0501 -0.235812,0.157608 -0.169918,0.130221 2.994401,-1.244591 4.428075,-2.056508 3.106906,-1.317705 -0.648927,0.164538 -1.294679,-0.004 -1.950693,-0.06143 -0.657467,-0.06832 -1.315471,-0.133681 -1.970409,-0.223755 -0.537102,-0.07945 -1.073391,-0.178088 -1.568938,-0.411113 -0.675931,-0.311724 -1.385509,-0.551777 -2.024902,-0.936963 0,0 -3.460524,1.853149 -3.460524,1.853149 z"
             id="path2947"
             style="fill:#000000;fill-opacity:1;fill-rule:evenodd;stroke:#000000;stroke-width:1;stroke-miterlimit:4;stroke-dasharray:none;stroke-opacity:1" />
          <path
             d="m 67.496149,65.265609 c -0.77198,0.122906 -1.467093,0.490161 -2.166683,0.817409 -0.739172,0.299045 -1.498468,0.551442 -2.267117,0.763129 -0.732314,0.16002 -1.471097,0.282618 -2.199103,0.463373 -0.673497,0.145217 -1.340445,0.321876 -2.017109,0.451916 -0.435113,0.03436 -1.051682,0.267764 -1.397519,-0.103042 -0.252806,-0.490997 0.03731,-0.668192 0.416867,-0.947922 0.525555,-0.431972 0.989574,-0.924378 1.557896,-1.306812 -5.944156,3.189118 -2.852904,1.619531 -1.341789,1.110052 0,0 3.088346,-2.390034 3.088346,-2.390034 v 0 c -1.966659,0.568449 -3.635447,1.547106 -5.377225,2.719363 -0.537808,0.428668 -1.029174,0.908431 -1.549649,1.357371 -0.424423,0.507291 -0.487717,0.889614 -0.164629,1.48145 0.462293,0.589184 0.958419,0.516075 1.647772,0.424386 0.692738,-0.09354 1.356527,-0.298373 2.041898,-0.427937 0.727763,-0.189709 1.458392,-0.350798 2.202365,-0.464881 0.785202,-0.187209 1.543659,-0.455911 2.308845,-0.709978 0.689446,-0.301434 1.339889,-0.692478 2.073118,-0.88493 0,0 3.143716,-2.352913 3.143716,-2.352913 z"
             id="path2953"
             style="fill:#000000;fill-opacity:1;fill-rule:evenodd;stroke:#000000;stroke-width:1;stroke-miterlimit:4;stroke-dasharray:none;stroke-opacity:1" />
          <ellipse
             style="fill:#ffb993;fill-opacity:1;fill-rule:evenodd;stroke:#000000;stroke-width:0.7;stroke-miterlimit:4;stroke-dasharray:none;stroke-opacity:1"
             id="path2927-8"
             cx="66.278122"
             cy="66.807289"
             rx="4.8608851"
             ry="2.7442203" />
          <path
             d="m 56.870041,61.716707 c 0.501179,-0.352229 1.766363,-1.171752 -0.566018,0.273995 -0.110398,0.06843 0.22991,-0.121433 0.348914,-0.173477 0.243533,-0.106505 0.495308,-0.193212 0.740574,-0.295669 0.621411,-0.261924 1.232675,-0.551508 1.878965,-0.747543 0.581911,-0.154464 1.187579,-0.166172 1.785773,-0.178731 0.542359,0.0081 1.093616,-0.0845 1.598226,0.146902 0.353254,0.240662 0.552768,0.541358 0.684536,0.939503 0,0 1.601023,-0.882779 1.601023,-0.882779 v 0 c -0.15293,-0.442029 -0.376487,-0.77787 -0.756987,-1.060908 -0.558935,-0.309788 -1.034415,-0.217795 -1.651365,-0.218705 -0.605988,0.0089 -1.218842,0.01365 -1.813893,0.140756 -0.659863,0.174815 -1.274585,0.468717 -1.901579,0.734168 -0.361281,0.163992 -0.755351,0.2608 -1.101976,0.454618 -0.870228,0.486598 -1.741564,0.958043 -2.552325,1.53543 0,0 1.706132,-0.66756 1.706132,-0.66756 z"
             id="path2978"
             style="fill:#000000;fill-opacity:1;fill-rule:evenodd;stroke:url(#radialGradient4184);stroke-width:1;stroke-miterlimit:4;stroke-dasharray:none;stroke-opacity:1" />
          <path
             d="m 66.942754,62.654777 c 0.721675,-0.424545 1.536446,-0.637355 2.320111,-0.914474 0.547785,-0.209897 1.122687,-0.294921 1.704104,-0.334634 0.590534,-0.02625 1.181881,-0.02111 1.77283,-0.0191 0.451247,0.02747 0.965721,-0.106977 1.351132,0.180877 0.106659,0.146949 0.19817,0.301305 0.282691,0.461629 0,0 1.592554,-0.911463 1.592554,-0.911463 v 0 c -0.09607,-0.181653 -0.201687,-0.355209 -0.319331,-0.524029 -0.407847,-0.362984 -0.913781,-0.2823 -1.428287,-0.280675 -0.593352,-0.0019 -1.186876,-0.0057 -1.780064,0.01125 -0.591722,0.02468 -1.180594,0.09101 -1.740699,0.296878 -0.78006,0.278117 -1.59743,0.483635 -2.323269,0.888468 0,0 -1.431772,1.145281 -1.431772,1.145281 z"
             id="path2980"
             style="fill:#000000;fill-opacity:1;fill-rule:evenodd;stroke:url(#radialGradient4052);stroke-width:1;stroke-miterlimit:4;stroke-dasharray:none;stroke-opacity:1" />
          <path
             style="fill:url(#radialGradient3541);fill-opacity:1;fill-rule:evenodd;stroke:url(#radialGradient3533);stroke-width:0.7;stroke-opacity:1"
             id="path3095"
             d="m 53.036644,61.851701 c -0.125442,0.149185 -0.258519,0.291732 -0.392316,0.433398 -0.02421,0.02922 -0.04821,0.05859 -0.07261,0.08765 -0.0599,0.07137 -0.07211,0.07965 -0.122803,0.15563 -0.04515,0.06768 -0.08151,0.138465 -0.128937,0.204814 -0.117761,0.168979 -0.207881,0.355843 -0.293084,0.542832 -0.07038,0.216819 -0.121174,0.441037 -0.165722,0.664681 -0.03698,0.212241 -0.04993,0.427316 -0.05579,0.642319 -0.003,0.190979 -0.0038,0.381992 -0.0033,0.572992 7.94e-4,0.195069 0.0013,0.390136 0.0011,0.585208 0.0039,0.102531 -0.01114,0.206357 0.01069,0.307586 0.0087,0.04052 0.03192,0.109643 0.04463,0.14931 0,0 0.22897,-0.0071 0.22897,-0.0071 v 0 c -0.0123,-0.03785 -0.03571,-0.106775 -0.04436,-0.145674 -0.02223,-0.09996 -0.0068,-0.202764 -0.01185,-0.304086 -7.94e-4,-0.19508 -5.3e-4,-0.390157 -5.3e-4,-0.585237 -1.95e-4,-0.190773 -0.0021,-0.381574 0.0021,-0.57232 0.006,-0.213635 0.01754,-0.427686 0.05542,-0.638429 0.04533,-0.221753 0.09203,-0.445289 0.165499,-0.659456 0.08549,-0.185764 0.175343,-0.371705 0.294606,-0.538514 0.04644,-0.06646 0.08295,-0.137419 0.128133,-0.204528 0.0451,-0.06698 0.06871,-0.0914 0.121528,-0.154223 0.02416,-0.02874 0.04831,-0.05749 0.07246,-0.08623 0.134708,-0.141922 0.266129,-0.286866 0.396907,-0.432413 0,0 -0.230672,-0.01815 -0.230672,-0.01815 z" />
          <path
             style="fill:url(#radialGradient3445);fill-opacity:1;fill-rule:evenodd;stroke:url(#radialGradient3437);stroke-width:0.7;stroke-opacity:1"
             id="path3129"
             d="m 78.515638,62.889145 c 0.131781,0.140997 0.223663,0.306287 0.30634,0.478764 0.08924,0.171413 0.108534,0.357468 0.120345,0.546962 0.0091,0.195832 0.0071,0.391927 0.0075,0.587904 -7.94e-4,0.250254 1.43e-4,0.50051 -2.54e-4,0.750766 -5.29e-4,0.167566 -2.41e-4,0.08589 -7.94e-4,0.245017 0,0 0.323456,1.6e-5 0.323456,1.6e-5 v 0 c -5.29e-4,-0.159117 -2.65e-4,-0.07745 -5.29e-4,-0.245004 3.9e-5,-0.250245 0.0016,-0.500483 0.0024,-0.750726 0.0013,-0.19667 0.0013,-0.393438 -0.0082,-0.589939 -0.01151,-0.193743 -0.02784,-0.384156 -0.119663,-0.559509 -0.08342,-0.173852 -0.17289,-0.342307 -0.303821,-0.486336 0,0 -0.326814,0.02209 -0.326814,0.02209 z" />
          <path
             style="fill:url(#radialGradient3397);fill-opacity:1;fill-rule:evenodd;stroke:url(#radialGradient3405);stroke-width:0.7;stroke-opacity:1"
             id="path3163"
             d="m 66.547118,65.51718 c 0.28479,-5.29e-4 0.569579,-2.65e-4 0.854369,-1.91e-4 -0.08735,0.0035 0.307268,-0.0032 0.230505,8.5e-5 -0.109024,0.0046 -0.219462,-0.008 -0.32724,0.0091 -0.04028,0.0064 0.08028,0.01455 0.120026,0.02371 0.115933,0.02669 0.104254,0.0264 0.209582,0.06799 0.148074,0.06032 0.275436,0.15813 0.389668,0.268337 0.07219,0.07643 0.134006,0.162396 0.189663,0.251378 0,0 0.461635,-0.02492 0.461635,-0.02492 v 0 c -0.05374,-0.09374 -0.118533,-0.180907 -0.189354,-0.262586 -0.111853,-0.118002 -0.244949,-0.219332 -0.393629,-0.286102 -0.361685,-0.162565 -0.755745,-0.120669 -1.144905,-0.118914 -0.285583,1.11e-4 -0.571167,2.64e-4 -0.856747,-1.88e-4 0,0 0.456427,0.07229 0.456427,0.07229 z" />
        </g>
        <g
           id="g3644">
          <g
             transform="translate(-1.3229168,-11.90625)"
             id="g4470">
            <rect
               style="mix-blend-mode:normal;fill:#f0f0f0;fill-opacity:1;fill-rule:evenodd;stroke:#000000;stroke-width:0.690532;stroke-miterlimit:4;stroke-dasharray:none;stroke-opacity:1"
               id="rect2865"
               width="22.724493"
               height="15.297344"
               x="61.03204"
               y="54.437542"
               transform="matrix(0.99983557,0.01813357,-0.07474199,0.99720291,0,0)" />
            <ellipse
               style="fill:#f0f0f0;fill-opacity:1;fill-rule:evenodd;stroke:#000000;stroke-width:0.841564;stroke-miterlimit:4;stroke-dasharray:none;stroke-opacity:1"
               id="path2831"
               cx="58.869793"
               cy="57.774277"
               rx="10"
               ry="7.0822988" />
            <ellipse
               cy="60.678764"
               cx="80.697914"
               id="path2831-0"
               style="fill:#f0f0f0;fill-opacity:1;fill-rule:evenodd;stroke:#000000;stroke-width:0.841564;stroke-miterlimit:4;stroke-dasharray:none;stroke-opacity:1"
               rx="10"
               ry="7.0822988" />
            <ellipse
               cy="56.368893"
               cx="70.643753"
               id="path2831-6"
               style="fill:#f0f0f0;fill-opacity:1;fill-rule:evenodd;stroke:#000000;stroke-width:0.841564;stroke-miterlimit:4;stroke-dasharray:none;stroke-opacity:1"
               rx="10"
               ry="7.0822988" />
          </g>
          <path
             style="fill:#ffffff;fill-opacity:1;fill-rule:evenodd;stroke:#ffffff;stroke-width:0.7;stroke-opacity:1"
             id="path2905"
             d="m 68.015574,38.891239 c 0.640064,0.05442 1.271857,0.161324 1.901791,0.28408 0.720759,0.164589 1.428609,0.384024 2.138222,0.591434 0.504748,0.156588 1.018561,0.336396 1.445776,0.655259 0.269933,0.220168 0.446333,0.522319 0.672822,0.782495 0.239054,0.242577 0.487775,0.475988 0.661411,0.771064 0.128137,0.24629 0.236278,0.502751 0.34395,0.758537 0,0 1.725769,-0.06827 1.725769,-0.06827 v 0 C 76.797238,42.404746 76.685076,42.14491 76.562423,41.890402 76.40608,41.573735 76.164018,41.31496 75.901359,41.080679 c -0.07385,-0.08504 -0.159785,-0.159734 -0.22805,-0.249314 -0.144669,-0.189844 -0.248081,-0.416211 -0.450033,-0.559576 -0.401798,-0.376391 -0.961808,-0.544557 -1.471316,-0.723725 -0.710115,-0.214222 -1.425464,-0.415719 -2.141598,-0.607618 -0.622541,-0.121081 -1.243957,-0.249457 -1.877785,-0.296233 0,0 -1.717003,0.247026 -1.717003,0.247026 z" />
          <path
             style="fill:#ffffff;fill-opacity:1;fill-rule:evenodd;stroke:#ffffff;stroke-width:0.7;stroke-opacity:1"
             id="path2915"
             d="m 81.250651,44.627859 c 0.522368,0.06663 1.039635,0.171434 1.549794,0.301274 0.367103,0.07575 0.667549,0.264723 0.964006,0.483659 0.410072,0.250997 0.822114,0.498187 1.228196,0.755892 0.262815,0.1604 0.497749,0.347975 0.709386,0.570646 0.233014,0.305435 0.383363,0.669223 0.532205,1.021762 0.116518,0.284682 0.181863,0.585255 0.242422,0.885612 0,0 1.708241,-0.26275 1.708241,-0.26275 v 0 c -0.0588,-0.312792 -0.128674,-0.624288 -0.247736,-0.920628 -0.154815,-0.371399 -0.319027,-0.745802 -0.540034,-1.082452 -0.217306,-0.237843 -0.443696,-0.450693 -0.72268,-0.616022 -0.412428,-0.241923 -0.808316,-0.511841 -1.231129,-0.737083 -0.300947,-0.235732 -0.590694,-0.47033 -0.976201,-0.548102 -0.505112,-0.151237 -1.031398,-0.228746 -1.548663,-0.326809 0,0 -1.667804,0.475018 -1.667804,0.475018 z" />
          <path
             style="fill:#ffffff;fill-opacity:1;fill-rule:evenodd;stroke:#ffffff;stroke-width:0.7;stroke-opacity:1"
             id="path2919"
             d="m 51.989074,43.474325 c 0.426929,-0.424596 0.89259,-0.808411 1.34021,-1.210816 0.34695,-0.293018 0.662567,-0.613354 1.07225,-0.81703 0.440812,-0.176353 0.899538,-0.305226 1.366404,-0.390361 0.736713,-0.164772 1.497205,-0.19044 2.249045,-0.221581 0.707366,-0.02706 3.469145,-0.04442 0.331865,-0.01241 0,0 1.700469,-0.256058 1.700469,-0.256058 v 0 c -1.237203,-0.01654 -2.474709,-0.04764 -3.711369,0.01024 -0.7629,0.03673 -1.531078,0.07557 -2.278605,0.243702 -0.469802,0.102444 -0.938382,0.233082 -1.373195,0.441437 -0.397391,0.232169 -0.717815,0.557088 -1.062869,0.858588 -0.450529,0.404165 -0.909743,0.798537 -1.363675,1.198909 0,0 1.72947,0.155388 1.72947,0.155388 z" />
          <path
             style="fill:#ffffff;fill-opacity:1;fill-rule:evenodd;stroke:#ffffff;stroke-width:0.7;stroke-opacity:1"
             id="path2972"
             d="m 74.522176,56.601349 c 0.01177,0.367892 0.0093,0.736055 0.0085,1.104077 0,0 1.71795,0 1.71795,0 v 0 c -7.93e-4,-0.368022 -0.0033,-0.736185 0.0085,-1.104077 0,0 -1.734868,0 -1.734868,0 z" />
          <path
             style="fill:#ffffff;fill-opacity:1;fill-rule:evenodd;stroke:#ffffff;stroke-width:0.7;stroke-opacity:1"
             id="path2979"
             d="m 56.114399,54.167775 c 0.01259,0.534395 0.0072,1.069035 0.0045,1.603523 -0.0036,0.419894 -0.0016,0.83979 -0.0019,1.259689 -2.64e-4,0.197297 -7.93e-4,0.394594 -0.0011,0.591891 0,0 1.729282,0 1.729282,0 v 0 c -2.64e-4,-0.197297 -7.94e-4,-0.394594 -0.0011,-0.591891 -5.29e-4,-0.419899 0.0016,-0.839795 -0.0019,-1.259689 -0.0027,-0.534488 -0.0081,-1.069128 0.0045,-1.603523 0,0 -1.73224,0 -1.73224,0 z" />
        </g>
      </g>
    </g>
    <g
       id="layer4" />
    <g
       id="layer5" />
  </g>
</svg>
