<?xml version="1.0" encoding="UTF-8" standalone="no"?>
<svg
   xmlns:dc="http://purl.org/dc/elements/1.1/"
   xmlns:cc="http://creativecommons.org/ns#"
   xmlns:rdf="http://www.w3.org/1999/02/22-rdf-syntax-ns#"
   xmlns:svg="http://www.w3.org/2000/svg"
   xmlns="http://www.w3.org/2000/svg"
   xmlns:xlink="http://www.w3.org/1999/xlink"
   id="svg8"
   version="1.1"
   viewBox="0 0 53 51.000001"
   height="51mm"
   width="53mm">
  <defs
     id="defs2">
    <linearGradient
       id="linearGradient11631">
      <stop
         id="stop11627"
         offset="0"
         style="stop-color:#000000;stop-opacity:1;" />
      <stop
         id="stop11629"
         offset="1"
         style="stop-color:#000000;stop-opacity:0;" />
    </linearGradient>
    <linearGradient
       id="linearGradient11505">
      <stop
         id="stop11501"
         offset="0"
         style="stop-color:#000000;stop-opacity:1;" />
      <stop
         id="stop11503"
         offset="1"
         style="stop-color:#000000;stop-opacity:0;" />
    </linearGradient>
    <radialGradient
       gradientUnits="userSpaceOnUse"
       gradientTransform="matrix(1,0,0,1.0118011,0,-0.38621151)"
       r="10.3993"
       fy="32.726673"
       fx="123.07704"
       cy="32.726673"
       cx="123.07704"
       id="radialGradient11516"
       xlink:href="#linearGradient11505" />
    <radialGradient
       gradientUnits="userSpaceOnUse"
       gradientTransform="matrix(1,0,0,0.77037037,0,10.015008)"
       r="25.513393"
       fy="43.613743"
       fx="77.746826"
       cy="43.613743"
       cx="77.746826"
       id="radialGradient11633"
       xlink:href="#linearGradient11631" />
  </defs>
  <metadata
     id="metadata5">
    <rdf:RDF>
      <cc:Work
         rdf:about="">
        <dc:format>image/svg+xml</dc:format>
        <dc:type
           rdf:resource="http://purl.org/dc/dcmitype/StillImage" />
        <dc:title></dc:title>
      </cc:Work>
    </rdf:RDF>
  </metadata>
  <g
     transform="translate(-49.138339,-19.951165)"
     id="layer1">
    <ellipse
       ry="4.630209"
       rx="26.080357"
       cy="66.06427"
       cx="75.691177"
       id="path5598"
       style="fill:#000000;fill-opacity:1;fill-rule:evenodd;stroke-width:0.831001" />
  </g>
  <g
     transform="translate(-49.138339,-19.951165)"
     id="layer2">
    <ellipse
       transform="rotate(2.5687117)"
       ry="19.654762"
       rx="25.513393"
       cy="43.613743"
       cx="77.746826"
       id="path868"
       style="fill:#aa0000;fill-opacity:1;fill-rule:evenodd;stroke:url(#radialGradient11633);stroke-width:0.75;stroke-miterlimit:4;stroke-dasharray:none;stroke-opacity:1" />
    <path
       d="m 133.33566,34.855392 -8.47522,-0.474967 -1.82419,8.791021 -1.97109,-8.710063 -8.3025,-0.982547 7.46999,-1.868117 -4.00383,-9.137649 7.30698,6.114507 6.1658,-5.165418 -2.81206,8.603541 z"
       transform="rotate(18.29977,103.27495,-98.875139)"
       id="path872"
       style="fill:#338000;fill-opacity:1;fill-rule:evenodd;stroke:url(#radialGradient11516);stroke-width:0.7;stroke-miterlimit:4;stroke-dasharray:none;stroke-opacity:1" />
    <path
       id="rect1683"
       style="fill:#e6e6e6;fill-opacity:1;fill-rule:evenodd;stroke:#e6e6e6;stroke-width:0.561385;stroke-opacity:1"
       d="m 64.241068,34.264743 1.557107,1.819018 c 0,0 -1.443593,0.435573 -2.131766,0.799651 -0.717008,0.379348 -1.617744,1.166373 -1.617744,1.166373 l -1.845008,-1.67039 c 0,0 1.06764,-0.987829 1.802717,-1.373292 0.678816,-0.355948 2.234694,-0.74136 2.234694,-0.74136 z" />
    <path
       style="fill:#ccffaa;fill-opacity:1;fill-rule:evenodd;stroke:#aa0000;stroke-width:0.795016;stroke-opacity:1"
       id="path1734"
       d="m 61.00851,37.123074 c 0.101276,-0.130025 0.207541,-0.257456 0.305666,-0.388989 0.07679,-0.09578 0.163436,-0.187342 0.265167,-0.268147 0.02067,-0.01641 0.123845,-0.08977 0.145865,-0.105522 0.15245,-0.111134 0.331265,-0.196051 0.506182,-0.283683 0.179204,-0.08931 0.360595,-0.175965 0.539781,-0.265295 0.176988,-0.08836 0.361674,-0.16487 0.552883,-0.232584 0.198623,-0.0511 0.382845,-0.127405 0.569691,-0.19911 0.158024,-0.06561 0.327803,-0.109317 0.495166,-0.157623 0.209682,-0.06485 0.423867,-0.120034 0.640729,-0.16832 0.182603,-0.04339 0.362171,-0.09156 0.549704,-0.120738 0,0 -0.0284,-0.0031 -0.0284,-0.0031 v 0 c -0.187268,0.02944 -0.366634,0.07775 -0.549114,0.120972 -0.216879,0.04833 -0.430969,0.10378 -0.64075,0.168485 -0.167604,0.04811 -0.337423,0.092 -0.49546,0.157826 -0.186691,0.07183 -0.371044,0.147715 -0.569454,0.199062 -0.191291,0.06784 -0.376025,0.14448 -0.553155,0.232875 -0.179092,0.0893 -0.360302,0.176039 -0.539418,0.265327 -0.175085,0.0877 -0.354183,0.172589 -0.506549,0.284033 -0.02456,0.01758 -0.122742,0.08736 -0.14579,0.105732 -0.101654,0.08101 -0.188246,0.172705 -0.26504,0.268613 -0.0981,0.131678 -0.204075,0.25935 -0.307325,0.388573 0,0 0.02962,0.0015 0.02962,0.0015 z" />
    <path
       style="fill:#ccffaa;fill-opacity:1;fill-rule:evenodd;stroke:#aa0000;stroke-width:0.665763;stroke-opacity:1"
       id="path1738"
       d="m 61.500061,34.961572 c 0.100766,0.03956 0.2052,0.06811 0.307145,0.104689 0.127393,0.05048 0.258657,0.0896 0.389085,0.131272 0.111984,0.02637 0.201781,0.0953 0.292573,0.161244 0.08915,0.07201 0.166186,0.157082 0.237103,0.246468 0.07802,0.102458 0.17406,0.189569 0.265462,0.279943 0.07344,0.06686 0.136389,0.143941 0.20561,0.214824 0.03425,0.03506 0.07054,0.06813 0.105528,0.102469 0.104571,0.09871 0.202542,0.203794 0.29446,0.314136 0.07766,0.09493 0.134832,0.202925 0.186971,0.313051 0.02604,0.05263 0.01373,0.02662 0.03703,0.078 0,0 0.02137,-0.0028 0.02137,-0.0028 v 0 c -0.02339,-0.05144 -0.01099,-0.02543 -0.03721,-0.07801 -0.05244,-0.110193 -0.109623,-0.218419 -0.187368,-0.313527 -0.09202,-0.11035 -0.189918,-0.215612 -0.294586,-0.314325 -0.03497,-0.03432 -0.07126,-0.06732 -0.105507,-0.102363 -0.06929,-0.07087 -0.13218,-0.148063 -0.205696,-0.214914 -0.09127,-0.0903 -0.186962,-0.177507 -0.26499,-0.279764 -0.07099,-0.08953 -0.148187,-0.174667 -0.237237,-0.247028 -0.09086,-0.06607 -0.180667,-0.135438 -0.292765,-0.161895 -0.130494,-0.04162 -0.261873,-0.08052 -0.38926,-0.131156 -0.101574,-0.03654 -0.205509,-0.0653 -0.306028,-0.104477 0,0 -0.02168,0.0041 -0.02168,0.0041 z" />
  </g>
</svg>
