<?xml version="1.0" encoding="UTF-8" standalone="no"?>
<svg
   xmlns:dc="http://purl.org/dc/elements/1.1/"
   xmlns:cc="http://creativecommons.org/ns#"
   xmlns:rdf="http://www.w3.org/1999/02/22-rdf-syntax-ns#"
   xmlns:svg="http://www.w3.org/2000/svg"
   xmlns="http://www.w3.org/2000/svg"
   id="svg8"
   version="1.1"
   viewBox="0 0 52.20647 47.183109"
   height="47.183109mm"
   width="52.20647mm">
  <defs
     id="defs2" />
  <metadata
     id="metadata5">
    <rdf:RDF>
      <cc:Work
         rdf:about="">
        <dc:format>image/svg+xml</dc:format>
        <dc:type
           rdf:resource="http://purl.org/dc/dcmitype/StillImage" />
        <dc:title></dc:title>
      </cc:Work>
    </rdf:RDF>
  </metadata>
  <g
     transform="translate(-49.138337,-19.951165)"
     id="layer1" />
  <g
     transform="translate(-49.138337,-19.951165)"
     id="layer2">
    <g
       transform="translate(-54.050594,-23.056548)"
       id="g970">
      <ellipse
         style="fill:#cccccc;fill-rule:evenodd;stroke:#cccccc;stroke-width:1.2;stroke-miterlimit:4;stroke-dasharray:none;stroke-opacity:1"
         id="path868"
         cx="132.29597"
         cy="64.057091"
         rx="25.513393"
         ry="19.654762"
         transform="rotate(2.5687117)" />
      <path
         d="m 133.33566,34.855392 -8.47522,-0.474967 -1.82419,8.791021 -1.97109,-8.710063 -8.3025,-0.982547 7.46999,-1.868117 -4.00383,-9.137649 7.30698,6.114507 6.1658,-5.165418 -2.81206,8.603541 z"
         style="fill:#aaaaaa;fill-opacity:1;fill-rule:evenodd;stroke:#aaaaaa;stroke-width:1;stroke-miterlimit:4;stroke-dasharray:none;stroke-opacity:1"
         id="path872"
         transform="rotate(18.29977,59.076362,78.880939)" />
    </g>
  </g>
</svg>
