{
    "FI": {
        "title": "Tunnuksen luominen",
        "title2": "Käyttäjätunnus",
        "title3": "Salasana",
        "title4": "Salasana uudestaan",
        "title5": "Katuosoite",
        "title6": "Postinumero",
        "title7": "Kaupunki",
        "button": "Luo tunnus",
        "button2": "Peruuta",
        "message": "Täytä kaikki tekstikentät...",
        "message2": "Salasanat eivät täsmää!",
        "message3": "Käyttäjätunnus on jo käytössä!",
        "message4": "Onko sinulla jo käyttäjätunnus? Kirjaudu sisään!"
    },
    "EN": {
        "title": "Sign up",
        "title2": "Username",
        "title3": "Password",
        "title4": "Password again",
        "title5": "Street address",
        "title6": "Post number",
        "title7": "City",
        "button": "Sign up",
        "button2": "Cancel",
        "message": "Fill in all input areas...",
        "message2": "Password is different in both input fields!",
        "message3": "User with the given username already exists!",
        "message4": "Already have an account? Login instead!"
    }
}